{
    "patient": [
        {
            "an": "66000123",
            "hn": "123",
            "cid": "1234567890123",
            "title": "นาย",
            "fname": "สมชาย",
            "lname": "ใจดี",
            "gender": "ชาย",
            "dob": "1987-11-21",
            "age": "033-11-12",
            "nationality": "ไทย",
            "citizenship": "ไทย",
            "religion": "พุทธ",
            "married_status": "โสด",
            "occupation": "นักเรียน",
            "blood_group": "A",
            "inscl": "01",
            "inscl_name": "สิทธิ์ประกันสุขภาพถ้วนหน้า",
            "address": "123 หมู่ 1 ต.ท่าข้าม อ.เมือง จ.นครราชสีมา 30000",
            "phone": "0123456789",
            "is_pregnant": "0",
            "reference_person_name": "นายสมพงษ์ ใจดี",
            "reference_person_phone": "0123456789",
            "reference_person_address": "123 หมู่ 1 ต.ท่าข้าม อ.เมือง จ.นครราชสีมา 30000",
            "reference_person_relationship": "พ่อ"
        }
    ],
    "review": [
        {
            "an": "66000123",
            "vn": "123",
            "chieft_complaint": "ไข้ มีน้ำมูก",
            "present_illness": "ไข้ มีน้ำมูก",
            "past_history": "ไม่มี",
            "physical_exam": "ไข้ มีน้ำมูก",
            "body_weight": "60",
            "body_height": "170",
            "pulse_rate": "80",
            "respiratory_rate": "20",
            "body_temperature": "37.5",
            "systolic_blood_pressure": "120",
            "diastolic_blood_pressure": "80",
            "oxygen_sat": "99",
            "eye_score": "",
            "movement_score": "",
            "verbal_score": "",
            "visit_date": "2020-01-01",
            "visit_time": "08:00:00"
        }
    ],
    "treatement": [
        {
            "an": "66000123",
            "item_type_id": 1,
            "item_code": "001",
            "item_name": "CBC",
            "item_describe": "Complete Blood Count",
            "price": 120,
            "quantity": 1,
            "treatment_date": "2021-01-01",
            "treatment_time": "08:00:00",
            "treatment_by": "Dr. John Doe"
        },
        {
            "an": "66000123",
            "item_type_id": 2,
            "item_code": "002",
            "item_name": "CXR",
            "item_describe": "Chest X-Ray",
            "price": 200,
            "quantity": 1,
            "treatment_date": "2021-01-01",
            "treatment_time": "08:00:00",
            "treatment_by": "Dr. John Doe"
        },
        {
            "an": "66000123",
            "item_type_id": 3,
            "item_code": "003",
            "item_name": "EKG",
            "item_describe": "Electrocardiogram",
            "price": 300,
            "quantity": 1,
            "treatment_date": "2021-01-01",
            "treatment_time": "08:00:00",
            "treatment_by": "Dr. John Doe"
        },
        {
            "an": "66000123",
            "item_type_id": 8,
            "item_code": "008",
            "item_name": "Paracetamol 500mg",
            "item_describe": "ครั้งละ 2 เม็ด ทุก 4-6 ชั่วโมง หรือกินเมื่อปวด",
            "price": 10,
            "quantity": 10,
            "treatment_date": "2021-01-01",
            "treatment_time": "08:00:00",
            "treatment_by": "Dr. John Doe"
        }
    ],
    "admit": [
        {
            "an": "66000123",
            "hn": "123456",
            "vn": "123456",
            "admit_date": "2021-01-01",
            "admit_time": "08:00:00",
            "admit_by": "Dr. John Doe",
            "department_code": "001",
            "ward_code": "001",
            "bed_code": "001",
            "bed_number": "1",
            "inscl_code": "001",
            "inscl_name": "บัตรทอง",
            "pre_diag": "Hypertenstion"
        }
    ],
    "bed": [
        {
            "bed_id": "00ecd6c0-a89e-4884-ad90-776c97cd5dd7",
            "status": "Used"
        }
    ],
    "ward": [
        {
            "ward_id": "00ecd6c0-a89e-4884-ad90-776c97cd5dd7",
        }
    ]
}